%YAML 1.1
%TAG !u! tag:unity3d.com,2011:
--- !u!114 &11400000
MonoBehaviour:
  m_ObjectHideFlags: 0
  m_CorrespondingSourceObject: {fileID: 0}
  m_PrefabInstance: {fileID: 0}
  m_PrefabAsset: {fileID: 0}
  m_GameObject: {fileID: 0}
  m_Enabled: 1
  m_EditorHideFlags: 0
  m_Script: {fileID: 11500000, guid: 3468a78ffd67bae4fa1b45ab285281ed, type: 3}
  m_Name: EasiestWave
  m_EditorClassIdentifier: 
  waveName: Defend the cannon!
  enemyNumber: 5
  pathType: 0
  speedModifier: 0.6
  attackModifier: 1
  healthModifier: 0.8
  randomPaths: 0
